\begin{thebibliography}{1}

\bibitem{schnorr2012detection}
Schnorr, Lucas Mello and Legrand, Arnaud and Vincent, Jean-Marc.
\newblock {Detection and analysis of resource usage anomalies in large distributed systems through multi-scale visualization}.
\newblock In {\em v.24 n.15 Concurrency and Computation: Practice and Experience. Journal}, pages 1792--1816, Wiley Online Library, 2012.

\bibitem{nagel1996vampir}
Nagel, Wolfgang E and Arnold, Alfred and Weber, Michael and Hoppe, Hans-Christian and Solchenbach, Karl
\newblock {VAMPIR: Visualization and analysis of MPI resources}.
\newblock In {\em Volume 12 n.1 Supercomputer 63. Journal}, pages 69--80, 1996.

\bibitem{pillet1995paraver}
Pillet, Vincent and Labarta, Jes{\'u}s and Cortes, Toni and Girona, Sergi
\newblock {Paraver: A tool to visualize and analyze parallel code}.
\newblock In {\em Proceedings of WoTUG-18: Transputer and occam Developments}, pages 17--31, 1995.

%\bibitem{zaki1999toward}
%Zaki, Omer and Lusk, Ewing and Gropp, William and Swider, Deborah
%\newblock {Toward scalable performance visualization with Jumpshot}.
%\newblock In {\em Volume 13 n.3 International Journal of High Performance Computing Applications. Journal}, pages 277--288, SAGE Publications, 1999.

\bibitem{Vite2009}
Coulomb, Kevin and Faverge, Mathieu and Jazeix, Johnny and Lagrasse, Olivier and Marcoueille, Jule and Noisette, Pascal and Redondy, Arthur and Vuchener, Clément
\newblock {Visual trace explorer (ViTE)}.
\newblock In \url{http://vite.gforge.inria.fr/}, 2009.

\bibitem{pajeng}
Lucas Mello Schnorr
\newblock {PajeNG -- Paje Next Generation}.
\newblock In \url{http://github.com/schnorr/pajeng}, 2014.

\end{thebibliography}
