14.701947
140737353062208 /home/jhmkorndorfer/jonas/cg2/seqTestes/seq1.trace 1465537112.675308 1465537112.712888 0.037580 36 0
140737353062208 /home/jhmkorndorfer/jonas/cg2/seqTestes/seq1.trace 1465537112.859558 1465537112.861777 0.002219 36 0
140737353062208 /home/jhmkorndorfer/jonas/cg2/seqTestes/seq1.trace 1465537113.005685 1465537113.007918 0.002233 36 0
140737353062208 /home/jhmkorndorfer/jonas/cg2/seqTestes/seq1.trace 1465537113.150443 1465537113.152512 0.002069 36 0
140737353062208 /home/jhmkorndorfer/jonas/cg2/seqTestes/seq1.trace 1465537113.295049 1465537113.297286 0.002237 36 0
140737353062208 /home/jhmkorndorfer/jonas/cg2/seqTestes/seq1.trace 1465537113.439371 1465537113.441232 0.001861 36 0
140737353062208 /home/jhmkorndorfer/jonas/cg2/seqTestes/seq1.trace 1465537113.584023 1465537113.586278 0.002255 36 0
140737353062208 /home/jhmkorndorfer/jonas/cg2/seqTestes/seq1.trace 1465537113.728635 1465537113.730459 0.001824 36 0
140737353062208 /home/jhmkorndorfer/jonas/cg2/seqTestes/seq1.trace 1465537113.873659 1465537113.875481 0.001822 36 0
140737353062208 /home/jhmkorndorfer/jonas/cg2/seqTestes/seq1.trace 1465537114.019942 1465537114.021808 0.001866 36 0
140737353062208 /home/jhmkorndorfer/jonas/cg2/seqTestes/seq1.trace 1465537114.163610 1465537114.165633 0.002023 36 0
140737353062208 /home/jhmkorndorfer/jonas/cg2/seqTestes/seq1.trace 1465537114.307756 1465537114.309774 0.002018 36 0
140737353062208 /home/jhmkorndorfer/jonas/cg2/seqTestes/seq1.trace 1465537114.451986 1465537114.453399 0.001413 36 0
140737353062208 /home/jhmkorndorfer/jonas/cg2/seqTestes/seq1.trace 1465537114.595390 1465537114.597025 0.001635 36 0
140737353062208 /home/jhmkorndorfer/jonas/cg2/seqTestes/seq1.trace 1465537114.740069 1465537114.741613 0.001544 36 0
140737353062208 /home/jhmkorndorfer/jonas/cg2/seqTestes/seq1.trace 1465537114.883408 1465537114.884951 0.001543 36 0
140737353062208 /home/jhmkorndorfer/jonas/cg2/seqTestes/seq1.trace 1465537115.027009 1465537115.028434 0.001425 36 0
140737353062208 /home/jhmkorndorfer/jonas/cg2/seqTestes/seq1.trace 1465537115.170195 1465537115.171724 0.001529 36 0
140737353062208 /home/jhmkorndorfer/jonas/cg2/seqTestes/seq1.trace 1465537115.318485 1465537115.320454 0.001969 36 0
140737353062208 /home/jhmkorndorfer/jonas/cg2/seqTestes/seq1.trace 1465537115.462857 1465537115.464782 0.001925 36 0
140737353062208 /home/jhmkorndorfer/jonas/cg2/seqTestes/seq1.trace 1465537115.607537 1465537115.609812 0.002275 36 0
140737353062208 /home/jhmkorndorfer/jonas/cg2/seqTestes/seq1.trace 1465537115.753095 1465537115.755206 0.002111 36 0
140737353062208 /home/jhmkorndorfer/jonas/cg2/seqTestes/seq1.trace 1465537115.898509 1465537115.900604 0.002095 36 0
140737353062208 /home/jhmkorndorfer/jonas/cg2/seqTestes/seq1.trace 1465537116.043845 1465537116.045754 0.001909 36 0
140737353062208 /home/jhmkorndorfer/jonas/cg2/seqTestes/seq1.trace 1465537116.188437 1465537116.190001 0.001564 36 0
140737353062208 /home/jhmkorndorfer/jonas/cg2/seqTestes/seq1.trace 1465537116.333753 1465537116.335180 0.001427 36 0
140737353062208 /home/jhmkorndorfer/jonas/cg2/seqTestes/seq1.trace 1465537116.477787 1465537116.479297 0.001510 36 0
140737353062208 /home/jhmkorndorfer/jonas/cg2/seqTestes/seq1.trace 1465537116.623244 1465537116.624929 0.001685 36 0
140737353062208 /home/jhmkorndorfer/jonas/cg2/seqTestes/seq1.trace 1465537116.769904 1465537116.771437 0.001533 36 0
140737353062208 /home/jhmkorndorfer/jonas/cg2/seqTestes/seq1.trace 1465537116.914103 1465537116.915730 0.001627 36 0
140737353062208 /home/jhmkorndorfer/jonas/cg2/seqTestes/seq1.trace 1465537117.059076 1465537117.060733 0.001657 36 0
140737353062208 /home/jhmkorndorfer/jonas/cg2/seqTestes/seq1.trace 1465537117.203998 1465537117.206301 0.002303 8 0
140737353062208 /home/jhmkorndorfer/jonas/cg2/seqTestes/seq1.trace 1465537117.350280 1465537117.352350 0.002070 8 0
140737353062208 /home/jhmkorndorfer/jonas/cg2/seqTestes/seq1.trace 1465537117.494686 1465537117.496933 0.002247 8 0
140737353062208 /home/jhmkorndorfer/jonas/cg2/seqTestes/seq1.trace 1465537117.639273 1465537117.641200 0.001927 8 0
140737353062208 /home/jhmkorndorfer/jonas/cg2/seqTestes/seq1.trace 1465537117.791796 1465537117.793954 0.002158 8 0
140737353062208 /home/jhmkorndorfer/jonas/cg2/seqTestes/seq1.trace 1465537117.937167 1465537117.939045 0.001878 8 0
140737353062208 /home/jhmkorndorfer/jonas/cg2/seqTestes/seq1.trace 1465537118.081403 1465537118.083358 0.001955 8 0
140737353062208 /home/jhmkorndorfer/jonas/cg2/seqTestes/seq1.trace 1465537118.227045 1465537118.229194 0.002149 8 0
140737353062208 /home/jhmkorndorfer/jonas/cg2/seqTestes/seq1.trace 1465537118.371745 1465537118.373794 0.002049 8 0
140737353062208 /home/jhmkorndorfer/jonas/cg2/seqTestes/seq1.trace 1465537118.516616 1465537118.518819 0.002203 8 0
140737353062208 /home/jhmkorndorfer/jonas/cg2/seqTestes/seq1.trace 1465537118.662414 1465537118.664584 0.002170 8 0
140737353062208 /home/jhmkorndorfer/jonas/cg2/seqTestes/seq1.trace 1465537118.809805 1465537118.811693 0.001888 8 0
140737353062208 /home/jhmkorndorfer/jonas/cg2/seqTestes/seq1.trace 1465537118.955190 1465537118.956692 0.001502 8 0
140737353062208 /home/jhmkorndorfer/jonas/cg2/seqTestes/seq1.trace 1465537119.100071 1465537119.101553 0.001482 8 0
140737353062208 /home/jhmkorndorfer/jonas/cg2/seqTestes/seq1.trace 1465537119.244631 1465537119.246110 0.001479 8 0
140737353062208 /home/jhmkorndorfer/jonas/cg2/seqTestes/seq1.trace 1465537119.390063 1465537119.391491 0.001428 8 0
140737353062208 /home/jhmkorndorfer/jonas/cg2/seqTestes/seq1.trace 1465537119.533387 1465537119.534974 0.001587 8 0
140737353062208 /home/jhmkorndorfer/jonas/cg2/seqTestes/seq1.trace 1465537119.677449 1465537119.678947 0.001498 8 0
140737353062208 /home/jhmkorndorfer/jonas/cg2/seqTestes/seq1.trace 1465537119.821237 1465537119.822879 0.001642 8 0
140737353062208 /home/jhmkorndorfer/jonas/cg2/seqTestes/seq1.trace 1465537119.965938 1465537119.967888 0.001950 8 0
140737353062208 /home/jhmkorndorfer/jonas/cg2/seqTestes/seq1.trace 1465537120.110211 1465537120.112595 0.002384 8 0
140737353062208 /home/jhmkorndorfer/jonas/cg2/seqTestes/seq1.trace 1465537120.254651 1465537120.256648 0.001997 8 0
140737353062208 /home/jhmkorndorfer/jonas/cg2/seqTestes/seq1.trace 1465537120.398640 1465537120.400623 0.001983 12 0
140737353062208 /home/jhmkorndorfer/jonas/cg2/seqTestes/seq1.trace 1465537120.544831 1465537120.546821 0.001990 12 0
140737353062208 /home/jhmkorndorfer/jonas/cg2/seqTestes/seq1.trace 1465537120.689738 1465537120.691709 0.001971 12 0
140737353062208 /home/jhmkorndorfer/jonas/cg2/seqTestes/seq1.trace 1465537120.835294 1465537120.837524 0.002230 12 0
140737353062208 /home/jhmkorndorfer/jonas/cg2/seqTestes/seq1.trace 1465537120.980586 1465537120.982427 0.001841 12 0
140737353062208 /home/jhmkorndorfer/jonas/cg2/seqTestes/seq1.trace 1465537121.125762 1465537121.128116 0.002354 12 0
140737353062208 /home/jhmkorndorfer/jonas/cg2/seqTestes/seq1.trace 1465537121.272016 1465537121.274098 0.002082 12 0
140737353062208 /home/jhmkorndorfer/jonas/cg2/seqTestes/seq1.trace 1465537121.417692 1465537121.420049 0.002357 12 0
140737353062208 /home/jhmkorndorfer/jonas/cg2/seqTestes/seq1.trace 1465537121.562847 1465537121.564880 0.002033 12 0
140737353062208 /home/jhmkorndorfer/jonas/cg2/seqTestes/seq1.trace 1465537121.707965 1465537121.710013 0.002048 12 0
140737353062208 /home/jhmkorndorfer/jonas/cg2/seqTestes/seq1.trace 1465537121.852617 1465537121.854602 0.001985 12 0
140737353062208 /home/jhmkorndorfer/jonas/cg2/seqTestes/seq1.trace 1465537121.997861 1465537121.999971 0.002110 12 0
140737353062208 /home/jhmkorndorfer/jonas/cg2/seqTestes/seq1.trace 1465537122.145353 1465537122.147646 0.002293 12 0
140737353062208 /home/jhmkorndorfer/jonas/cg2/seqTestes/seq1.trace 1465537122.290549 1465537122.292686 0.002137 12 0
140737353062208 /home/jhmkorndorfer/jonas/cg2/seqTestes/seq1.trace 1465537122.435756 1465537122.437892 0.002136 12 0
140737353062208 /home/jhmkorndorfer/jonas/cg2/seqTestes/seq1.trace 1465537122.580723 1465537122.582728 0.002005 12 0
140737353062208 /home/jhmkorndorfer/jonas/cg2/seqTestes/seq1.trace 1465537122.724455 1465537122.726838 0.002383 12 0
140737353062208 /home/jhmkorndorfer/jonas/cg2/seqTestes/seq1.trace 1465537122.884576 1465537122.886557 0.001981 12 0
140737353062208 /home/jhmkorndorfer/jonas/cg2/seqTestes/seq1.trace 1465537123.030119 1465537123.032238 0.002119 12 0
140737353062208 /home/jhmkorndorfer/jonas/cg2/seqTestes/seq1.trace 1465537123.174463 1465537123.176469 0.002006 12 0
140737353062208 /home/jhmkorndorfer/jonas/cg2/seqTestes/seq1.trace 1465537123.319736 1465537123.321945 0.002209 12 0
140737353062208 /home/jhmkorndorfer/jonas/cg2/seqTestes/seq1.trace 1465537123.464261 1465537123.466516 0.002255 12 0
140737353062208 /home/jhmkorndorfer/jonas/cg2/seqTestes/seq1.trace 1465537123.608194 1465537123.610195 0.002001 12 0
140737353062208 /home/jhmkorndorfer/jonas/cg2/seqTestes/seq1.trace 1465537123.751976 1465537123.754252 0.002276 12 0
140737353062208 /home/jhmkorndorfer/jonas/cg2/seqTestes/seq1.trace 1465537123.896758 1465537123.898805 0.002047 12 0
140737353062208 /home/jhmkorndorfer/jonas/cg2/seqTestes/seq1.trace 1465537124.041887 1465537124.044304 0.002417 12 0
140737353062208 /home/jhmkorndorfer/jonas/cg2/seqTestes/seq1.trace 1465537124.186558 1465537124.188782 0.002224 12 0
140737353062208 /home/jhmkorndorfer/jonas/cg2/seqTestes/seq1.trace 1465537124.332063 1465537124.334084 0.002021 12 0
140737353062208 /home/jhmkorndorfer/jonas/cg2/seqTestes/seq1.trace 1465537124.476438 1465537124.478504 0.002066 12 0
140737353062208 /home/jhmkorndorfer/jonas/cg2/seqTestes/seq1.trace 1465537124.620690 1465537124.622356 0.001666 12 0
140737353062208 /home/jhmkorndorfer/jonas/cg2/seqTestes/seq1.trace 1465537124.764016 1465537124.765545 0.001529 12 0
140737353062208 /home/jhmkorndorfer/jonas/cg2/seqTestes/seq1.trace 1465537124.907994 1465537124.909455 0.001461 12 0
140737353062208 /home/jhmkorndorfer/jonas/cg2/seqTestes/seq1.trace 1465537125.052105 1465537125.053767 0.001662 12 0
140737353062208 /home/jhmkorndorfer/jonas/cg2/seqTestes/seq1.trace 1465537125.196483 1465537125.198060 0.001577 12 0
140737353062208 /home/jhmkorndorfer/jonas/cg2/seqTestes/seq1.trace 1465537125.339824 1465537125.341949 0.002125 12 0
140737353062208 /home/jhmkorndorfer/jonas/cg2/seqTestes/seq1.trace 1465537125.483766 1465537125.485750 0.001984 12 0
140737353062208 /home/jhmkorndorfer/jonas/cg2/seqTestes/seq1.trace 1465537125.628547 1465537125.630612 0.002065 12 0
140737353062208 /home/jhmkorndorfer/jonas/cg2/seqTestes/seq1.trace 1465537125.772740 1465537125.774764 0.002024 12 0
140737353062208 /home/jhmkorndorfer/jonas/cg2/seqTestes/seq1.trace 1465537125.917187 1465537125.919100 0.001913 12 0
140737353062208 /home/jhmkorndorfer/jonas/cg2/seqTestes/seq1.trace 1465537126.061795 1465537126.064337 0.002542 12 0
140737353062208 /home/jhmkorndorfer/jonas/cg2/seqTestes/seq1.trace 1465537126.206768 1465537126.208782 0.002014 12 0
140737353062208 /home/jhmkorndorfer/jonas/cg2/seqTestes/seq1.trace 1465537126.352063 1465537126.354357 0.002294 12 0
140737353062208 /home/jhmkorndorfer/jonas/cg2/seqTestes/seq1.trace 1465537126.497812 1465537126.500029 0.002217 12 0
140737353062208 /home/jhmkorndorfer/jonas/cg2/seqTestes/seq1.trace 1465537126.642086 1465537126.644250 0.002164 12 0
140737353062208 /home/jhmkorndorfer/jonas/cg2/seqTestes/seq1.trace 1465537126.787353 1465537126.789298 0.001945 12 0
140737353062208 /home/jhmkorndorfer/jonas/cg2/seqTestes/seq1.trace 1465537126.930922 1465537126.932835 0.001913 12 0
140737353062208 /home/jhmkorndorfer/jonas/cg2/seqTestes/seq1.trace 1465537127.075263 1465537127.076778 0.001515 12 0
140737353062208 /home/jhmkorndorfer/jonas/cg2/seqTestes/seq1.trace 1465537127.218948 1465537127.220805 0.001857 12 0
140737353062208 /home/jhmkorndorfer/jonas/cg2/seqTestes/seq1.trace 1465537127.363148 1465537127.363198 0.000050 12 0
Decoder Time: 140737353062208 7.423892 12 0
Simulator Time: 140737353062208 4.462748 12 0
