14.652025
140737353062208 /home/jhmkorndorfer/jonas/cg2/seqTestes/seq1.trace 1465537142.948698 1465537142.951297 0.002599 36 0
140737353062208 /home/jhmkorndorfer/jonas/cg2/seqTestes/seq1.trace 1465537143.097225 1465537143.099380 0.002155 36 0
140737353062208 /home/jhmkorndorfer/jonas/cg2/seqTestes/seq1.trace 1465537143.242946 1465537143.244618 0.001672 36 0
140737353062208 /home/jhmkorndorfer/jonas/cg2/seqTestes/seq1.trace 1465537143.387358 1465537143.389373 0.002015 36 0
140737353062208 /home/jhmkorndorfer/jonas/cg2/seqTestes/seq1.trace 1465537143.531258 1465537143.532982 0.001724 36 0
140737353062208 /home/jhmkorndorfer/jonas/cg2/seqTestes/seq1.trace 1465537143.674460 1465537143.675915 0.001455 36 0
140737353062208 /home/jhmkorndorfer/jonas/cg2/seqTestes/seq1.trace 1465537143.818802 1465537143.820502 0.001700 36 0
140737353062208 /home/jhmkorndorfer/jonas/cg2/seqTestes/seq1.trace 1465537143.963961 1465537143.965356 0.001395 36 0
140737353062208 /home/jhmkorndorfer/jonas/cg2/seqTestes/seq1.trace 1465537144.108570 1465537144.110089 0.001519 36 0
140737353062208 /home/jhmkorndorfer/jonas/cg2/seqTestes/seq1.trace 1465537144.254170 1465537144.255697 0.001527 36 0
140737353062208 /home/jhmkorndorfer/jonas/cg2/seqTestes/seq1.trace 1465537144.398236 1465537144.400154 0.001918 36 0
140737353062208 /home/jhmkorndorfer/jonas/cg2/seqTestes/seq1.trace 1465537144.542829 1465537144.545184 0.002355 36 0
140737353062208 /home/jhmkorndorfer/jonas/cg2/seqTestes/seq1.trace 1465537144.687288 1465537144.689337 0.002049 36 0
140737353062208 /home/jhmkorndorfer/jonas/cg2/seqTestes/seq1.trace 1465537144.832190 1465537144.834268 0.002078 36 0
140737353062208 /home/jhmkorndorfer/jonas/cg2/seqTestes/seq1.trace 1465537144.977716 1465537144.979307 0.001591 36 0
140737353062208 /home/jhmkorndorfer/jonas/cg2/seqTestes/seq1.trace 1465537145.122285 1465537145.123925 0.001640 36 0
140737353062208 /home/jhmkorndorfer/jonas/cg2/seqTestes/seq1.trace 1465537145.267492 1465537145.269548 0.002056 36 0
140737353062208 /home/jhmkorndorfer/jonas/cg2/seqTestes/seq1.trace 1465537145.411842 1465537145.413857 0.002015 36 0
140737353062208 /home/jhmkorndorfer/jonas/cg2/seqTestes/seq1.trace 1465537145.560716 1465537145.562646 0.001930 36 0
140737353062208 /home/jhmkorndorfer/jonas/cg2/seqTestes/seq1.trace 1465537145.705352 1465537145.707383 0.002031 36 0
140737353062208 /home/jhmkorndorfer/jonas/cg2/seqTestes/seq1.trace 1465537145.850236 1465537145.851941 0.001705 36 0
140737353062208 /home/jhmkorndorfer/jonas/cg2/seqTestes/seq1.trace 1465537145.995089 1465537145.996554 0.001465 36 0
140737353062208 /home/jhmkorndorfer/jonas/cg2/seqTestes/seq1.trace 1465537146.139974 1465537146.141680 0.001706 36 0
140737353062208 /home/jhmkorndorfer/jonas/cg2/seqTestes/seq1.trace 1465537146.284850 1465537146.286640 0.001790 36 0
140737353062208 /home/jhmkorndorfer/jonas/cg2/seqTestes/seq1.trace 1465537146.429849 1465537146.431393 0.001544 36 0
140737353062208 /home/jhmkorndorfer/jonas/cg2/seqTestes/seq1.trace 1465537146.575210 1465537146.576598 0.001388 36 0
140737353062208 /home/jhmkorndorfer/jonas/cg2/seqTestes/seq1.trace 1465537146.719720 1465537146.721163 0.001443 36 0
140737353062208 /home/jhmkorndorfer/jonas/cg2/seqTestes/seq1.trace 1465537146.864456 1465537146.866366 0.001910 36 0
140737353062208 /home/jhmkorndorfer/jonas/cg2/seqTestes/seq1.trace 1465537147.010265 1465537147.011935 0.001670 36 0
140737353062208 /home/jhmkorndorfer/jonas/cg2/seqTestes/seq1.trace 1465537147.153916 1465537147.155834 0.001918 36 0
140737353062208 /home/jhmkorndorfer/jonas/cg2/seqTestes/seq1.trace 1465537147.298350 1465537147.300384 0.002034 36 0
140737353062208 /home/jhmkorndorfer/jonas/cg2/seqTestes/seq1.trace 1465537147.443349 1465537147.445555 0.002206 36 0
140737353062208 /home/jhmkorndorfer/jonas/cg2/seqTestes/seq1.trace 1465537147.588587 1465537147.590616 0.002029 36 0
140737353062208 /home/jhmkorndorfer/jonas/cg2/seqTestes/seq1.trace 1465537147.732778 1465537147.734984 0.002206 36 0
140737353062208 /home/jhmkorndorfer/jonas/cg2/seqTestes/seq1.trace 1465537147.877848 1465537147.879866 0.002018 36 0
140737353062208 /home/jhmkorndorfer/jonas/cg2/seqTestes/seq1.trace 1465537148.030374 1465537148.032731 0.002357 36 0
140737353062208 /home/jhmkorndorfer/jonas/cg2/seqTestes/seq1.trace 1465537148.175088 1465537148.177189 0.002101 36 0
140737353062208 /home/jhmkorndorfer/jonas/cg2/seqTestes/seq1.trace 1465537148.320407 1465537148.322370 0.001963 36 0
140737353062208 /home/jhmkorndorfer/jonas/cg2/seqTestes/seq1.trace 1465537148.464687 1465537148.466802 0.002115 36 0
140737353062208 /home/jhmkorndorfer/jonas/cg2/seqTestes/seq1.trace 1465537148.610016 1465537148.611976 0.001960 36 0
140737353062208 /home/jhmkorndorfer/jonas/cg2/seqTestes/seq1.trace 1465537148.755317 1465537148.757699 0.002382 36 0
140737353062208 /home/jhmkorndorfer/jonas/cg2/seqTestes/seq1.trace 1465537148.899887 1465537148.901911 0.002024 36 0
140737353062208 /home/jhmkorndorfer/jonas/cg2/seqTestes/seq1.trace 1465537149.046989 1465537149.049208 0.002219 36 0
140737353062208 /home/jhmkorndorfer/jonas/cg2/seqTestes/seq1.trace 1465537149.191634 1465537149.193626 0.001992 36 0
140737353062208 /home/jhmkorndorfer/jonas/cg2/seqTestes/seq1.trace 1465537149.334704 1465537149.336773 0.002069 36 0
140737353062208 /home/jhmkorndorfer/jonas/cg2/seqTestes/seq1.trace 1465537149.479107 1465537149.481066 0.001959 36 0
140737353062208 /home/jhmkorndorfer/jonas/cg2/seqTestes/seq1.trace 1465537149.623610 1465537149.625658 0.002048 36 0
140737353062208 /home/jhmkorndorfer/jonas/cg2/seqTestes/seq1.trace 1465537149.767494 1465537149.769186 0.001692 36 0
140737353062208 /home/jhmkorndorfer/jonas/cg2/seqTestes/seq1.trace 1465537149.911473 1465537149.912923 0.001450 36 0
140737353062208 /home/jhmkorndorfer/jonas/cg2/seqTestes/seq1.trace 1465537150.055183 1465537150.056861 0.001678 36 0
140737353062208 /home/jhmkorndorfer/jonas/cg2/seqTestes/seq1.trace 1465537150.199333 1465537150.201019 0.001686 36 0
140737353062208 /home/jhmkorndorfer/jonas/cg2/seqTestes/seq1.trace 1465537150.343197 1465537150.345381 0.002184 36 0
140737353062208 /home/jhmkorndorfer/jonas/cg2/seqTestes/seq1.trace 1465537150.487184 1465537150.489214 0.002030 36 0
140737353062208 /home/jhmkorndorfer/jonas/cg2/seqTestes/seq1.trace 1465537150.631001 1465537150.633096 0.002095 36 0
140737353062208 /home/jhmkorndorfer/jonas/cg2/seqTestes/seq1.trace 1465537150.776220 1465537150.778312 0.002092 36 0
140737353062208 /home/jhmkorndorfer/jonas/cg2/seqTestes/seq1.trace 1465537150.920158 1465537150.922294 0.002136 36 0
140737353062208 /home/jhmkorndorfer/jonas/cg2/seqTestes/seq1.trace 1465537151.064740 1465537151.066934 0.002194 36 0
140737353062208 /home/jhmkorndorfer/jonas/cg2/seqTestes/seq1.trace 1465537151.209393 1465537151.211305 0.001912 36 0
140737353062208 /home/jhmkorndorfer/jonas/cg2/seqTestes/seq1.trace 1465537151.354158 1465537151.356183 0.002025 36 0
140737353062208 /home/jhmkorndorfer/jonas/cg2/seqTestes/seq1.trace 1465537151.498495 1465537151.500265 0.001770 36 0
140737353062208 /home/jhmkorndorfer/jonas/cg2/seqTestes/seq1.trace 1465537151.650009 1465537151.652298 0.002289 36 0
140737353062208 /home/jhmkorndorfer/jonas/cg2/seqTestes/seq1.trace 1465537151.794758 1465537151.796647 0.001889 36 0
140737353062208 /home/jhmkorndorfer/jonas/cg2/seqTestes/seq1.trace 1465537151.938355 1465537151.940323 0.001968 36 0
140737353062208 /home/jhmkorndorfer/jonas/cg2/seqTestes/seq1.trace 1465537152.083074 1465537152.085045 0.001971 36 0
140737353062208 /home/jhmkorndorfer/jonas/cg2/seqTestes/seq1.trace 1465537152.227953 1465537152.230110 0.002157 36 0
140737353062208 /home/jhmkorndorfer/jonas/cg2/seqTestes/seq1.trace 1465537152.374366 1465537152.376511 0.002145 36 0
140737353062208 /home/jhmkorndorfer/jonas/cg2/seqTestes/seq1.trace 1465537152.518817 1465537152.520767 0.001950 36 0
140737353062208 /home/jhmkorndorfer/jonas/cg2/seqTestes/seq1.trace 1465537152.662895 1465537152.665135 0.002240 36 0
140737353062208 /home/jhmkorndorfer/jonas/cg2/seqTestes/seq1.trace 1465537152.806886 1465537152.809026 0.002140 36 0
140737353062208 /home/jhmkorndorfer/jonas/cg2/seqTestes/seq1.trace 1465537152.951147 1465537152.953223 0.002076 36 0
140737353062208 /home/jhmkorndorfer/jonas/cg2/seqTestes/seq1.trace 1465537153.110216 1465537153.112343 0.002127 36 0
140737353062208 /home/jhmkorndorfer/jonas/cg2/seqTestes/seq1.trace 1465537153.255001 1465537153.257114 0.002113 36 0
140737353062208 /home/jhmkorndorfer/jonas/cg2/seqTestes/seq1.trace 1465537153.399139 1465537153.401260 0.002121 36 0
140737353062208 /home/jhmkorndorfer/jonas/cg2/seqTestes/seq1.trace 1465537153.543280 1465537153.545286 0.002006 36 0
140737353062208 /home/jhmkorndorfer/jonas/cg2/seqTestes/seq1.trace 1465537153.688057 1465537153.690197 0.002140 36 0
140737353062208 /home/jhmkorndorfer/jonas/cg2/seqTestes/seq1.trace 1465537153.831755 1465537153.833761 0.002006 36 0
140737353062208 /home/jhmkorndorfer/jonas/cg2/seqTestes/seq1.trace 1465537153.975957 1465537153.978164 0.002207 36 0
140737353062208 /home/jhmkorndorfer/jonas/cg2/seqTestes/seq1.trace 1465537154.120939 1465537154.122912 0.001973 36 0
140737353062208 /home/jhmkorndorfer/jonas/cg2/seqTestes/seq1.trace 1465537154.265819 1465537154.268229 0.002410 36 0
140737353062208 /home/jhmkorndorfer/jonas/cg2/seqTestes/seq1.trace 1465537154.410012 1465537154.411888 0.001876 36 0
140737353062208 /home/jhmkorndorfer/jonas/cg2/seqTestes/seq1.trace 1465537154.555075 1465537154.557021 0.001946 36 0
140737353062208 /home/jhmkorndorfer/jonas/cg2/seqTestes/seq1.trace 1465537154.698378 1465537154.700263 0.001885 36 0
140737353062208 /home/jhmkorndorfer/jonas/cg2/seqTestes/seq1.trace 1465537154.842682 1465537154.844313 0.001631 36 0
140737353062208 /home/jhmkorndorfer/jonas/cg2/seqTestes/seq1.trace 1465537154.985391 1465537154.986974 0.001583 36 0
140737353062208 /home/jhmkorndorfer/jonas/cg2/seqTestes/seq1.trace 1465537155.129908 1465537155.131369 0.001461 36 0
140737353062208 /home/jhmkorndorfer/jonas/cg2/seqTestes/seq1.trace 1465537155.273447 1465537155.275609 0.002162 36 0
140737353062208 /home/jhmkorndorfer/jonas/cg2/seqTestes/seq1.trace 1465537155.418430 1465537155.420625 0.002195 36 0
140737353062208 /home/jhmkorndorfer/jonas/cg2/seqTestes/seq1.trace 1465537155.562975 1465537155.565052 0.002077 36 0
140737353062208 /home/jhmkorndorfer/jonas/cg2/seqTestes/seq1.trace 1465537155.707613 1465537155.709627 0.002014 36 0
140737353062208 /home/jhmkorndorfer/jonas/cg2/seqTestes/seq1.trace 1465537155.852355 1465537155.854359 0.002004 36 0
140737353062208 /home/jhmkorndorfer/jonas/cg2/seqTestes/seq1.trace 1465537155.996441 1465537155.998455 0.002014 36 0
140737353062208 /home/jhmkorndorfer/jonas/cg2/seqTestes/seq1.trace 1465537156.140664 1465537156.142696 0.002032 36 0
140737353062208 /home/jhmkorndorfer/jonas/cg2/seqTestes/seq1.trace 1465537156.285323 1465537156.287393 0.002070 36 0
140737353062208 /home/jhmkorndorfer/jonas/cg2/seqTestes/seq1.trace 1465537156.430422 1465537156.432420 0.001998 36 0
140737353062208 /home/jhmkorndorfer/jonas/cg2/seqTestes/seq1.trace 1465537156.575907 1465537156.578188 0.002281 36 0
140737353062208 /home/jhmkorndorfer/jonas/cg2/seqTestes/seq1.trace 1465537156.720509 1465537156.722537 0.002028 36 0
140737353062208 /home/jhmkorndorfer/jonas/cg2/seqTestes/seq1.trace 1465537156.864237 1465537156.866401 0.002164 36 0
140737353062208 /home/jhmkorndorfer/jonas/cg2/seqTestes/seq1.trace 1465537157.008904 1465537157.010839 0.001935 36 0
140737353062208 /home/jhmkorndorfer/jonas/cg2/seqTestes/seq1.trace 1465537157.153454 1465537157.155493 0.002039 36 0
140737353062208 /home/jhmkorndorfer/jonas/cg2/seqTestes/seq1.trace 1465537157.297436 1465537157.299438 0.002002 36 0
140737353062208 /home/jhmkorndorfer/jonas/cg2/seqTestes/seq1.trace 1465537157.442465 1465537157.444399 0.001934 36 0
140737353062208 /home/jhmkorndorfer/jonas/cg2/seqTestes/seq1.trace 1465537157.586503 1465537157.586552 0.000049 36 0
Decoder Time: 140737353062208 7.415899 36 0
Simulator Time: 140737353062208 4.452204 36 0
