14.891702
140737353062208 /ssd/cg2/seqWSCAD/seq1.trace 1465536039.628966 1465536039.634375 0.005409 36 0
140737353062208 /ssd/cg2/seqWSCAD/seq1.trace 1465536039.780395 1465536039.784486 0.004091 36 0
140737353062208 /ssd/cg2/seqWSCAD/seq1.trace 1465536039.927717 1465536039.931977 0.004260 36 0
140737353062208 /ssd/cg2/seqWSCAD/seq1.trace 1465536040.073567 1465536040.077784 0.004217 36 0
140737353062208 /ssd/cg2/seqWSCAD/seq1.trace 1465536040.221335 1465536040.225534 0.004199 36 0
140737353062208 /ssd/cg2/seqWSCAD/seq1.trace 1465536040.368229 1465536040.371868 0.003639 36 0
140737353062208 /ssd/cg2/seqWSCAD/seq1.trace 1465536040.514470 1465536040.518628 0.004158 36 0
140737353062208 /ssd/cg2/seqWSCAD/seq1.trace 1465536040.661007 1465536040.664758 0.003751 36 0
140737353062208 /ssd/cg2/seqWSCAD/seq1.trace 1465536040.806742 1465536040.810732 0.003990 36 0
140737353062208 /ssd/cg2/seqWSCAD/seq1.trace 1465536040.956314 1465536040.959968 0.003654 36 0
140737353062208 /ssd/cg2/seqWSCAD/seq1.trace 1465536041.113216 1465536041.117264 0.004048 36 0
140737353062208 /ssd/cg2/seqWSCAD/seq1.trace 1465536041.259203 1465536041.263614 0.004411 36 0
140737353062208 /ssd/cg2/seqWSCAD/seq1.trace 1465536041.406781 1465536041.411124 0.004343 36 0
140737353062208 /ssd/cg2/seqWSCAD/seq1.trace 1465536041.553121 1465536041.557402 0.004281 36 0
140737353062208 /ssd/cg2/seqWSCAD/seq1.trace 1465536041.700095 1465536041.703900 0.003805 36 0
140737353062208 /ssd/cg2/seqWSCAD/seq1.trace 1465536041.846632 1465536041.850678 0.004046 36 0
140737353062208 /ssd/cg2/seqWSCAD/seq1.trace 1465536041.992900 1465536041.996648 0.003748 36 0
140737353062208 /ssd/cg2/seqWSCAD/seq1.trace 1465536042.138720 1465536042.142601 0.003881 36 0
140737353062208 /ssd/cg2/seqWSCAD/seq1.trace 1465536042.288798 1465536042.292559 0.003761 36 0
140737353062208 /ssd/cg2/seqWSCAD/seq1.trace 1465536042.435133 1465536042.439174 0.004041 36 0
140737353062208 /ssd/cg2/seqWSCAD/seq1.trace 1465536042.581662 1465536042.585788 0.004126 36 0
140737353062208 /ssd/cg2/seqWSCAD/seq1.trace 1465536042.727610 1465536042.731587 0.003977 36 0
140737353062208 /ssd/cg2/seqWSCAD/seq1.trace 1465536042.873140 1465536042.877886 0.004746 36 0
140737353062208 /ssd/cg2/seqWSCAD/seq1.trace 1465536043.020556 1465536043.024582 0.004026 36 0
140737353062208 /ssd/cg2/seqWSCAD/seq1.trace 1465536043.167131 1465536043.171595 0.004464 36 0
140737353062208 /ssd/cg2/seqWSCAD/seq1.trace 1465536043.315100 1465536043.319271 0.004171 36 0
140737353062208 /ssd/cg2/seqWSCAD/seq1.trace 1465536043.461787 1465536043.465701 0.003914 36 0
140737353062208 /ssd/cg2/seqWSCAD/seq1.trace 1465536043.608283 1465536043.612056 0.003773 36 0
140737353062208 /ssd/cg2/seqWSCAD/seq1.trace 1465536043.755634 1465536043.759574 0.003940 36 0
140737353062208 /ssd/cg2/seqWSCAD/seq1.trace 1465536043.902827 1465536043.906650 0.003823 36 0
140737353062208 /ssd/cg2/seqWSCAD/seq1.trace 1465536044.049520 1465536044.053416 0.003896 36 0
140737353062208 /ssd/cg2/seqWSCAD/seq1.trace 1465536044.195603 1465536044.199867 0.004264 36 0
140737353062208 /ssd/cg2/seqWSCAD/seq1.trace 1465536044.342073 1465536044.345796 0.003723 36 0
140737353062208 /ssd/cg2/seqWSCAD/seq1.trace 1465536044.487644 1465536044.491892 0.004248 36 0
140737353062208 /ssd/cg2/seqWSCAD/seq1.trace 1465536044.633887 1465536044.638113 0.004226 36 0
140737353062208 /ssd/cg2/seqWSCAD/seq1.trace 1465536044.788660 1465536044.792381 0.003721 36 0
140737353062208 /ssd/cg2/seqWSCAD/seq1.trace 1465536044.934184 1465536044.938575 0.004391 36 0
140737353062208 /ssd/cg2/seqWSCAD/seq1.trace 1465536045.081535 1465536045.085446 0.003911 36 0
140737353062208 /ssd/cg2/seqWSCAD/seq1.trace 1465536045.228470 1465536045.232972 0.004502 36 0
140737353062208 /ssd/cg2/seqWSCAD/seq1.trace 1465536045.375409 1465536045.379788 0.004379 36 0
140737353062208 /ssd/cg2/seqWSCAD/seq1.trace 1465536045.523083 1465536045.527217 0.004134 36 0
140737353062208 /ssd/cg2/seqWSCAD/seq1.trace 1465536045.669037 1465536045.672923 0.003886 36 0
140737353062208 /ssd/cg2/seqWSCAD/seq1.trace 1465536045.816588 1465536045.820628 0.004040 36 0
140737353062208 /ssd/cg2/seqWSCAD/seq1.trace 1465536045.962743 1465536045.966591 0.003848 36 0
140737353062208 /ssd/cg2/seqWSCAD/seq1.trace 1465536046.109369 1465536046.113135 0.003766 36 0
140737353062208 /ssd/cg2/seqWSCAD/seq1.trace 1465536046.256923 1465536046.260534 0.003611 36 0
140737353062208 /ssd/cg2/seqWSCAD/seq1.trace 1465536046.403243 1465536046.407031 0.003788 36 0
140737353062208 /ssd/cg2/seqWSCAD/seq1.trace 1465536046.550076 1465536046.554217 0.004141 36 0
140737353062208 /ssd/cg2/seqWSCAD/seq1.trace 1465536046.697649 1465536046.701492 0.003843 36 0
140737353062208 /ssd/cg2/seqWSCAD/seq1.trace 1465536046.844842 1465536046.848933 0.004091 36 0
140737353062208 /ssd/cg2/seqWSCAD/seq1.trace 1465536046.991218 1465536046.995088 0.003870 36 0
140737353062208 /ssd/cg2/seqWSCAD/seq1.trace 1465536047.138371 1465536047.142389 0.004018 36 0
140737353062208 /ssd/cg2/seqWSCAD/seq1.trace 1465536047.285613 1465536047.289734 0.004121 36 0
140737353062208 /ssd/cg2/seqWSCAD/seq1.trace 1465536047.432951 1465536047.436613 0.003662 36 0
140737353062208 /ssd/cg2/seqWSCAD/seq1.trace 1465536047.579984 1465536047.584067 0.004083 36 0
140737353062208 /ssd/cg2/seqWSCAD/seq1.trace 1465536047.727114 1465536047.731049 0.003935 36 0
140737353062208 /ssd/cg2/seqWSCAD/seq1.trace 1465536047.874184 1465536047.878860 0.004676 36 0
140737353062208 /ssd/cg2/seqWSCAD/seq1.trace 1465536048.022172 1465536048.026257 0.004085 36 0
140737353062208 /ssd/cg2/seqWSCAD/seq1.trace 1465536048.169348 1465536048.173433 0.004085 36 0
140737353062208 /ssd/cg2/seqWSCAD/seq1.trace 1465536048.316317 1465536048.320946 0.004629 36 0
140737353062208 /ssd/cg2/seqWSCAD/seq1.trace 1465536048.464104 1465536048.468383 0.004279 36 0
140737353062208 /ssd/cg2/seqWSCAD/seq1.trace 1465536048.611762 1465536048.615696 0.003934 36 0
140737353062208 /ssd/cg2/seqWSCAD/seq1.trace 1465536048.758205 1465536048.762130 0.003925 36 0
140737353062208 /ssd/cg2/seqWSCAD/seq1.trace 1465536048.905681 1465536048.909381 0.003700 36 0
140737353062208 /ssd/cg2/seqWSCAD/seq1.trace 1465536049.052235 1465536049.056146 0.003911 36 0
140737353062208 /ssd/cg2/seqWSCAD/seq1.trace 1465536049.201199 1465536049.205375 0.004176 36 0
140737353062208 /ssd/cg2/seqWSCAD/seq1.trace 1465536049.348423 1465536049.352429 0.004006 36 0
140737353062208 /ssd/cg2/seqWSCAD/seq1.trace 1465536049.495672 1465536049.500115 0.004443 36 0
140737353062208 /ssd/cg2/seqWSCAD/seq1.trace 1465536049.643737 1465536049.647699 0.003962 36 0
140737353062208 /ssd/cg2/seqWSCAD/seq1.trace 1465536049.791401 1465536049.795618 0.004217 36 0
140737353062208 /ssd/cg2/seqWSCAD/seq1.trace 1465536049.953518 1465536049.957699 0.004181 36 0
140737353062208 /ssd/cg2/seqWSCAD/seq1.trace 1465536050.101646 1465536050.105271 0.003625 36 0
140737353062208 /ssd/cg2/seqWSCAD/seq1.trace 1465536050.248142 1465536050.251730 0.003588 36 0
140737353062208 /ssd/cg2/seqWSCAD/seq1.trace 1465536050.393824 1465536050.397861 0.004037 36 0
140737353062208 /ssd/cg2/seqWSCAD/seq1.trace 1465536050.540346 1465536050.544665 0.004319 36 0
140737353062208 /ssd/cg2/seqWSCAD/seq1.trace 1465536050.686810 1465536050.690636 0.003826 36 0
140737353062208 /ssd/cg2/seqWSCAD/seq1.trace 1465536050.833365 1465536050.837896 0.004531 36 0
140737353062208 /ssd/cg2/seqWSCAD/seq1.trace 1465536050.990913 1465536050.995030 0.004117 36 0
140737353062208 /ssd/cg2/seqWSCAD/seq1.trace 1465536051.137218 1465536051.141483 0.004265 36 0
140737353062208 /ssd/cg2/seqWSCAD/seq1.trace 1465536051.282868 1465536051.286716 0.003848 36 0
140737353062208 /ssd/cg2/seqWSCAD/seq1.trace 1465536051.430971 1465536051.434575 0.003604 36 0
140737353062208 /ssd/cg2/seqWSCAD/seq1.trace 1465536051.578564 1465536051.582525 0.003961 36 0
140737353062208 /ssd/cg2/seqWSCAD/seq1.trace 1465536051.724634 1465536051.728198 0.003564 36 0
140737353062208 /ssd/cg2/seqWSCAD/seq1.trace 1465536051.870476 1465536051.874678 0.004202 36 0
140737353062208 /ssd/cg2/seqWSCAD/seq1.trace 1465536052.016829 1465536052.020410 0.003581 36 0
140737353062208 /ssd/cg2/seqWSCAD/seq1.trace 1465536052.162081 1465536052.166343 0.004262 36 0
140737353062208 /ssd/cg2/seqWSCAD/seq1.trace 1465536052.308840 1465536052.312774 0.003934 36 0
140737353062208 /ssd/cg2/seqWSCAD/seq1.trace 1465536052.454804 1465536052.459108 0.004304 36 0
140737353062208 /ssd/cg2/seqWSCAD/seq1.trace 1465536052.601089 1465536052.604983 0.003894 36 0
140737353062208 /ssd/cg2/seqWSCAD/seq1.trace 1465536052.747856 1465536052.751851 0.003995 36 0
140737353062208 /ssd/cg2/seqWSCAD/seq1.trace 1465536052.894642 1465536052.898463 0.003821 36 0
140737353062208 /ssd/cg2/seqWSCAD/seq1.trace 1465536053.040525 1465536053.044480 0.003955 36 0
140737353062208 /ssd/cg2/seqWSCAD/seq1.trace 1465536053.186356 1465536053.190538 0.004182 36 0
140737353062208 /ssd/cg2/seqWSCAD/seq1.trace 1465536053.332751 1465536053.336661 0.003910 36 0
140737353062208 /ssd/cg2/seqWSCAD/seq1.trace 1465536053.478773 1465536053.483539 0.004766 36 0
140737353062208 /ssd/cg2/seqWSCAD/seq1.trace 1465536053.626610 1465536053.630210 0.003600 36 0
140737353062208 /ssd/cg2/seqWSCAD/seq1.trace 1465536053.772517 1465536053.777269 0.004752 36 0
140737353062208 /ssd/cg2/seqWSCAD/seq1.trace 1465536053.920870 1465536053.924491 0.003621 36 0
140737353062208 /ssd/cg2/seqWSCAD/seq1.trace 1465536054.067194 1465536054.071490 0.004296 36 0
140737353062208 /ssd/cg2/seqWSCAD/seq1.trace 1465536054.214511 1465536054.218334 0.003823 36 0
140737353062208 /ssd/cg2/seqWSCAD/seq1.trace 1465536054.360593 1465536054.364324 0.003731 36 0
140737353062208 /ssd/cg2/seqWSCAD/seq1.trace 1465536054.506563 1465536054.506613 0.000050 36 0
Decoder Time: 140737353062208 7.417954 36 0
Simulator Time: 140737353062208 4.476527 36 0
