27.812525
140737353062208 /home/jhmkorndorfer/jonas/cg2/seqTestes/seq2.trace 1465537418.450325 1465537418.452913 0.002588 36 0
140737353062208 /home/jhmkorndorfer/jonas/cg2/seqTestes/seq2.trace 1465537418.598789 1465537418.600839 0.002050 36 0
140737353062208 /home/jhmkorndorfer/jonas/cg2/seqTestes/seq2.trace 1465537418.744831 1465537418.746994 0.002163 36 0
140737353062208 /home/jhmkorndorfer/jonas/cg2/seqTestes/seq2.trace 1465537418.889248 1465537418.891218 0.001970 36 0
140737353062208 /home/jhmkorndorfer/jonas/cg2/seqTestes/seq2.trace 1465537419.032869 1465537419.035027 0.002158 36 0
140737353062208 /home/jhmkorndorfer/jonas/cg2/seqTestes/seq2.trace 1465537419.176430 1465537419.178266 0.001836 36 0
140737353062208 /home/jhmkorndorfer/jonas/cg2/seqTestes/seq2.trace 1465537419.321267 1465537419.323470 0.002203 36 0
140737353062208 /home/jhmkorndorfer/jonas/cg2/seqTestes/seq2.trace 1465537419.466371 1465537419.468216 0.001845 36 0
140737353062208 /home/jhmkorndorfer/jonas/cg2/seqTestes/seq2.trace 1465537419.610738 1465537419.612899 0.002161 36 0
140737353062208 /home/jhmkorndorfer/jonas/cg2/seqTestes/seq2.trace 1465537419.757177 1465537419.758860 0.001683 36 0
140737353062208 /home/jhmkorndorfer/jonas/cg2/seqTestes/seq2.trace 1465537419.901432 1465537419.902865 0.001433 36 0
140737353062208 /home/jhmkorndorfer/jonas/cg2/seqTestes/seq2.trace 1465537420.045050 1465537420.046623 0.001573 36 0
140737353062208 /home/jhmkorndorfer/jonas/cg2/seqTestes/seq2.trace 1465537420.188645 1465537420.190075 0.001430 36 0
140737353062208 /home/jhmkorndorfer/jonas/cg2/seqTestes/seq2.trace 1465537420.332338 1465537420.333883 0.001545 36 0
140737353062208 /home/jhmkorndorfer/jonas/cg2/seqTestes/seq2.trace 1465537420.477556 1465537420.479085 0.001529 36 0
140737353062208 /home/jhmkorndorfer/jonas/cg2/seqTestes/seq2.trace 1465537420.621549 1465537420.623062 0.001513 36 0
140737353062208 /home/jhmkorndorfer/jonas/cg2/seqTestes/seq2.trace 1465537420.765800 1465537420.767187 0.001387 36 0
140737353062208 /home/jhmkorndorfer/jonas/cg2/seqTestes/seq2.trace 1465537420.909258 1465537420.910756 0.001498 36 0
140737353062208 /home/jhmkorndorfer/jonas/cg2/seqTestes/seq2.trace 1465537421.057408 1465537421.058914 0.001506 36 0
140737353062208 /home/jhmkorndorfer/jonas/cg2/seqTestes/seq2.trace 1465537421.201464 1465537421.202865 0.001401 36 0
140737353062208 /home/jhmkorndorfer/jonas/cg2/seqTestes/seq2.trace 1465537421.345782 1465537421.347330 0.001548 36 0
140737353062208 /home/jhmkorndorfer/jonas/cg2/seqTestes/seq2.trace 1465537421.489667 1465537421.491065 0.001398 36 0
140737353062208 /home/jhmkorndorfer/jonas/cg2/seqTestes/seq2.trace 1465537421.633950 1465537421.635538 0.001588 36 0
140737353062208 /home/jhmkorndorfer/jonas/cg2/seqTestes/seq2.trace 1465537421.777092 1465537421.778592 0.001500 36 0
140737353062208 /home/jhmkorndorfer/jonas/cg2/seqTestes/seq2.trace 1465537421.920732 1465537421.922693 0.001961 36 0
140737353062208 /home/jhmkorndorfer/jonas/cg2/seqTestes/seq2.trace 1465537422.064352 1465537422.066450 0.002098 36 0
140737353062208 /home/jhmkorndorfer/jonas/cg2/seqTestes/seq2.trace 1465537422.208734 1465537422.210800 0.002066 36 0
140737353062208 /home/jhmkorndorfer/jonas/cg2/seqTestes/seq2.trace 1465537422.353725 1465537422.355625 0.001900 36 0
140737353062208 /home/jhmkorndorfer/jonas/cg2/seqTestes/seq2.trace 1465537422.498580 1465537422.500273 0.001693 36 0
140737353062208 /home/jhmkorndorfer/jonas/cg2/seqTestes/seq2.trace 1465537422.642071 1465537422.643607 0.001536 36 0
140737353062208 /home/jhmkorndorfer/jonas/cg2/seqTestes/seq2.trace 1465537422.786069 1465537422.787926 0.001857 36 0
140737353062208 /home/jhmkorndorfer/jonas/cg2/seqTestes/seq2.trace 1465537422.930221 1465537422.932565 0.002344 36 0
140737353062208 /home/jhmkorndorfer/jonas/cg2/seqTestes/seq2.trace 1465537423.075024 1465537423.077212 0.002188 36 0
140737353062208 /home/jhmkorndorfer/jonas/cg2/seqTestes/seq2.trace 1465537423.218507 1465537423.220474 0.001967 36 0
140737353062208 /home/jhmkorndorfer/jonas/cg2/seqTestes/seq2.trace 1465537423.362974 1465537423.364930 0.001956 36 0
140737353062208 /home/jhmkorndorfer/jonas/cg2/seqTestes/seq2.trace 1465537423.514600 1465537423.516850 0.002250 36 0
140737353062208 /home/jhmkorndorfer/jonas/cg2/seqTestes/seq2.trace 1465537423.659608 1465537423.661677 0.002069 36 0
140737353062208 /home/jhmkorndorfer/jonas/cg2/seqTestes/seq2.trace 1465537423.804094 1465537423.806073 0.001979 36 0
140737353062208 /home/jhmkorndorfer/jonas/cg2/seqTestes/seq2.trace 1465537423.948939 1465537423.951168 0.002229 36 0
140737353062208 /home/jhmkorndorfer/jonas/cg2/seqTestes/seq2.trace 1465537424.094304 1465537424.096285 0.001981 36 0
140737353062208 /home/jhmkorndorfer/jonas/cg2/seqTestes/seq2.trace 1465537424.239099 1465537424.241380 0.002281 36 0
140737353062208 /home/jhmkorndorfer/jonas/cg2/seqTestes/seq2.trace 1465537424.383002 1465537424.384641 0.001639 36 0
140737353062208 /home/jhmkorndorfer/jonas/cg2/seqTestes/seq2.trace 1465537424.528635 1465537424.530288 0.001653 36 0
140737353062208 /home/jhmkorndorfer/jonas/cg2/seqTestes/seq2.trace 1465537424.672996 1465537424.674421 0.001425 36 0
140737353062208 /home/jhmkorndorfer/jonas/cg2/seqTestes/seq2.trace 1465537424.816384 1465537424.817853 0.001469 36 0
140737353062208 /home/jhmkorndorfer/jonas/cg2/seqTestes/seq2.trace 1465537424.960138 1465537424.961511 0.001373 36 0
140737353062208 /home/jhmkorndorfer/jonas/cg2/seqTestes/seq2.trace 1465537425.104246 1465537425.105772 0.001526 36 0
140737353062208 /home/jhmkorndorfer/jonas/cg2/seqTestes/seq2.trace 1465537425.247294 1465537425.248934 0.001640 36 0
140737353062208 /home/jhmkorndorfer/jonas/cg2/seqTestes/seq2.trace 1465537425.391802 1465537425.393227 0.001425 36 0
140737353062208 /home/jhmkorndorfer/jonas/cg2/seqTestes/seq2.trace 1465537425.535941 1465537425.538080 0.002139 36 0
140737353062208 /home/jhmkorndorfer/jonas/cg2/seqTestes/seq2.trace 1465537425.681268 1465537425.683119 0.001851 36 0
140737353062208 /home/jhmkorndorfer/jonas/cg2/seqTestes/seq2.trace 1465537425.825972 1465537425.827627 0.001655 36 0
140737353062208 /home/jhmkorndorfer/jonas/cg2/seqTestes/seq2.trace 1465537425.970812 1465537425.972523 0.001711 36 0
140737353062208 /home/jhmkorndorfer/jonas/cg2/seqTestes/seq2.trace 1465537426.115104 1465537426.116641 0.001537 36 0
140737353062208 /home/jhmkorndorfer/jonas/cg2/seqTestes/seq2.trace 1465537426.260958 1465537426.262355 0.001397 36 0
140737353062208 /home/jhmkorndorfer/jonas/cg2/seqTestes/seq2.trace 1465537426.404506 1465537426.406065 0.001559 36 0
140737353062208 /home/jhmkorndorfer/jonas/cg2/seqTestes/seq2.trace 1465537426.549379 1465537426.551147 0.001768 36 0
140737353062208 /home/jhmkorndorfer/jonas/cg2/seqTestes/seq2.trace 1465537426.694519 1465537426.695974 0.001455 36 0
140737353062208 /home/jhmkorndorfer/jonas/cg2/seqTestes/seq2.trace 1465537426.838660 1465537426.840271 0.001611 36 0
140737353062208 /home/jhmkorndorfer/jonas/cg2/seqTestes/seq2.trace 1465537426.982926 1465537426.984578 0.001652 36 0
140737353062208 /home/jhmkorndorfer/jonas/cg2/seqTestes/seq2.trace 1465537427.127224 1465537427.129063 0.001839 36 0
140737353062208 /home/jhmkorndorfer/jonas/cg2/seqTestes/seq2.trace 1465537427.271345 1465537427.272942 0.001597 36 0
140737353062208 /home/jhmkorndorfer/jonas/cg2/seqTestes/seq2.trace 1465537427.415203 1465537427.416710 0.001507 36 0
140737353062208 /home/jhmkorndorfer/jonas/cg2/seqTestes/seq2.trace 1465537427.559475 1465537427.561338 0.001863 36 0
140737353062208 /home/jhmkorndorfer/jonas/cg2/seqTestes/seq2.trace 1465537427.704560 1465537427.705984 0.001424 36 0
140737353062208 /home/jhmkorndorfer/jonas/cg2/seqTestes/seq2.trace 1465537427.848912 1465537427.850454 0.001542 36 0
140737353062208 /home/jhmkorndorfer/jonas/cg2/seqTestes/seq2.trace 1465537427.995803 1465537427.997551 0.001748 36 0
140737353062208 /home/jhmkorndorfer/jonas/cg2/seqTestes/seq2.trace 1465537428.140176 1465537428.142379 0.002203 36 0
140737353062208 /home/jhmkorndorfer/jonas/cg2/seqTestes/seq2.trace 1465537428.285442 1465537428.287512 0.002070 36 0
140737353062208 /home/jhmkorndorfer/jonas/cg2/seqTestes/seq2.trace 1465537428.430557 1465537428.432958 0.002401 36 0
140737353062208 /home/jhmkorndorfer/jonas/cg2/seqTestes/seq2.trace 1465537428.590835 1465537428.592907 0.002072 36 0
140737353062208 /home/jhmkorndorfer/jonas/cg2/seqTestes/seq2.trace 1465537428.735870 1465537428.737976 0.002106 36 0
140737353062208 /home/jhmkorndorfer/jonas/cg2/seqTestes/seq2.trace 1465537428.880214 1465537428.882102 0.001888 36 0
140737353062208 /home/jhmkorndorfer/jonas/cg2/seqTestes/seq2.trace 1465537429.025000 1465537429.027069 0.002069 36 0
140737353062208 /home/jhmkorndorfer/jonas/cg2/seqTestes/seq2.trace 1465537429.170277 1465537429.172586 0.002309 36 0
140737353062208 /home/jhmkorndorfer/jonas/cg2/seqTestes/seq2.trace 1465537429.314742 1465537429.316261 0.001519 36 0
140737353062208 /home/jhmkorndorfer/jonas/cg2/seqTestes/seq2.trace 1465537429.458629 1465537429.460344 0.001715 36 0
140737353062208 /home/jhmkorndorfer/jonas/cg2/seqTestes/seq2.trace 1465537429.603470 1465537429.605031 0.001561 36 0
140737353062208 /home/jhmkorndorfer/jonas/cg2/seqTestes/seq2.trace 1465537429.747781 1465537429.749367 0.001586 36 0
140737353062208 /home/jhmkorndorfer/jonas/cg2/seqTestes/seq2.trace 1465537429.891398 1465537429.892839 0.001441 36 0
140737353062208 /home/jhmkorndorfer/jonas/cg2/seqTestes/seq2.trace 1465537430.035618 1465537430.037129 0.001511 36 0
140737353062208 /home/jhmkorndorfer/jonas/cg2/seqTestes/seq2.trace 1465537430.178933 1465537430.180432 0.001499 36 0
140737353062208 /home/jhmkorndorfer/jonas/cg2/seqTestes/seq2.trace 1465537430.323263 1465537430.324767 0.001504 36 0
140737353062208 /home/jhmkorndorfer/jonas/cg2/seqTestes/seq2.trace 1465537430.467265 1465537430.468973 0.001708 36 0
140737353062208 /home/jhmkorndorfer/jonas/cg2/seqTestes/seq2.trace 1465537430.611236 1465537430.612782 0.001546 36 0
140737353062208 /home/jhmkorndorfer/jonas/cg2/seqTestes/seq2.trace 1465537430.754530 1465537430.756065 0.001535 36 0
140737353062208 /home/jhmkorndorfer/jonas/cg2/seqTestes/seq2.trace 1465537430.898703 1465537430.900125 0.001422 36 0
140737353062208 /home/jhmkorndorfer/jonas/cg2/seqTestes/seq2.trace 1465537431.042132 1465537431.044253 0.002121 36 0
140737353062208 /home/jhmkorndorfer/jonas/cg2/seqTestes/seq2.trace 1465537431.186354 1465537431.188352 0.001998 36 0
140737353062208 /home/jhmkorndorfer/jonas/cg2/seqTestes/seq2.trace 1465537431.330801 1465537431.382345 0.051544 36 0
140737353062208 /home/jhmkorndorfer/jonas/cg2/seqTestes/seq2.trace 1465537431.524929 1465537431.526878 0.001949 36 0
140737353062208 /home/jhmkorndorfer/jonas/cg2/seqTestes/seq2.trace 1465537431.669587 1465537431.671068 0.001481 36 0
140737353062208 /home/jhmkorndorfer/jonas/cg2/seqTestes/seq2.trace 1465537431.813564 1465537431.815198 0.001634 36 0
140737353062208 /home/jhmkorndorfer/jonas/cg2/seqTestes/seq2.trace 1465537431.957717 1465537431.959701 0.001984 36 0
140737353062208 /home/jhmkorndorfer/jonas/cg2/seqTestes/seq2.trace 1465537432.101867 1465537432.104230 0.002363 36 0
140737353062208 /home/jhmkorndorfer/jonas/cg2/seqTestes/seq2.trace 1465537432.247432 1465537432.248888 0.001456 36 0
140737353062208 /home/jhmkorndorfer/jonas/cg2/seqTestes/seq2.trace 1465537432.389955 1465537432.391617 0.001662 36 0
140737353062208 /home/jhmkorndorfer/jonas/cg2/seqTestes/seq2.trace 1465537432.534612 1465537432.536086 0.001474 36 0
140737353062208 /home/jhmkorndorfer/jonas/cg2/seqTestes/seq2.trace 1465537432.678300 1465537432.679732 0.001432 36 0
140737353062208 /home/jhmkorndorfer/jonas/cg2/seqTestes/seq2.trace 1465537432.821866 1465537432.823465 0.001599 36 0
140737353062208 /home/jhmkorndorfer/jonas/cg2/seqTestes/seq2.trace 1465537432.965852 1465537432.967398 0.001546 36 0
140737353062208 /home/jhmkorndorfer/jonas/cg2/seqTestes/seq2.trace 1465537433.109079 1465537433.110627 0.001548 36 0
140737353062208 /home/jhmkorndorfer/jonas/cg2/seqTestes/seq2.trace 1465537433.239866 1465537433.241278 0.001412 36 0
140737353062208 /home/jhmkorndorfer/jonas/cg2/seqTestes/seq2.trace 1465537433.368814 1465537433.370411 0.001597 36 0
140737353062208 /home/jhmkorndorfer/jonas/cg2/seqTestes/seq2.trace 1465537433.498163 1465537433.499629 0.001466 36 0
140737353062208 /home/jhmkorndorfer/jonas/cg2/seqTestes/seq2.trace 1465537433.627104 1465537433.628908 0.001804 8 0
140737353062208 /home/jhmkorndorfer/jonas/cg2/seqTestes/seq2.trace 1465537433.759995 1465537433.762070 0.002075 8 0
140737353062208 /home/jhmkorndorfer/jonas/cg2/seqTestes/seq2.trace 1465537433.891023 1465537433.892967 0.001944 8 0
140737353062208 /home/jhmkorndorfer/jonas/cg2/seqTestes/seq2.trace 1465537434.020303 1465537434.022324 0.002021 8 0
140737353062208 /home/jhmkorndorfer/jonas/cg2/seqTestes/seq2.trace 1465537434.150541 1465537434.152563 0.002022 8 0
140737353062208 /home/jhmkorndorfer/jonas/cg2/seqTestes/seq2.trace 1465537434.281746 1465537434.284117 0.002371 8 0
140737353062208 /home/jhmkorndorfer/jonas/cg2/seqTestes/seq2.trace 1465537434.412366 1465537434.414237 0.001871 8 0
140737353062208 /home/jhmkorndorfer/jonas/cg2/seqTestes/seq2.trace 1465537434.542928 1465537434.545079 0.002151 8 0
140737353062208 /home/jhmkorndorfer/jonas/cg2/seqTestes/seq2.trace 1465537434.672765 1465537434.674786 0.002021 8 0
140737353062208 /home/jhmkorndorfer/jonas/cg2/seqTestes/seq2.trace 1465537434.802494 1465537434.804600 0.002106 8 0
140737353062208 /home/jhmkorndorfer/jonas/cg2/seqTestes/seq2.trace 1465537434.932445 1465537434.934512 0.002067 8 0
140737353062208 /home/jhmkorndorfer/jonas/cg2/seqTestes/seq2.trace 1465537435.061791 1465537435.063703 0.001912 8 0
140737353062208 /home/jhmkorndorfer/jonas/cg2/seqTestes/seq2.trace 1465537435.191009 1465537435.193068 0.002059 8 0
140737353062208 /home/jhmkorndorfer/jonas/cg2/seqTestes/seq2.trace 1465537435.321907 1465537435.324019 0.002112 8 0
140737353062208 /home/jhmkorndorfer/jonas/cg2/seqTestes/seq2.trace 1465537435.451814 1465537435.454090 0.002276 8 0
140737353062208 /home/jhmkorndorfer/jonas/cg2/seqTestes/seq2.trace 1465537435.581615 1465537435.583617 0.002002 8 0
140737353062208 /home/jhmkorndorfer/jonas/cg2/seqTestes/seq2.trace 1465537435.711021 1465537435.713363 0.002342 8 0
140737353062208 /home/jhmkorndorfer/jonas/cg2/seqTestes/seq2.trace 1465537435.840784 1465537435.842609 0.001825 8 0
140737353062208 /home/jhmkorndorfer/jonas/cg2/seqTestes/seq2.trace 1465537435.971426 1465537435.973858 0.002432 8 0
140737353062208 /home/jhmkorndorfer/jonas/cg2/seqTestes/seq2.trace 1465537436.102758 1465537436.104701 0.001943 8 0
140737353062208 /home/jhmkorndorfer/jonas/cg2/seqTestes/seq2.trace 1465537436.231947 1465537436.234003 0.002056 8 0
140737353062208 /home/jhmkorndorfer/jonas/cg2/seqTestes/seq2.trace 1465537436.361414 1465537436.363429 0.002015 8 0
140737353062208 /home/jhmkorndorfer/jonas/cg2/seqTestes/seq2.trace 1465537436.490706 1465537436.492680 0.001974 8 0
140737353062208 /home/jhmkorndorfer/jonas/cg2/seqTestes/seq2.trace 1465537436.621033 1465537436.622769 0.001736 8 0
140737353062208 /home/jhmkorndorfer/jonas/cg2/seqTestes/seq2.trace 1465537436.751286 1465537436.752968 0.001682 8 0
140737353062208 /home/jhmkorndorfer/jonas/cg2/seqTestes/seq2.trace 1465537436.881710 1465537436.883785 0.002075 8 0
140737353062208 /home/jhmkorndorfer/jonas/cg2/seqTestes/seq2.trace 1465537437.011835 1465537437.013878 0.002043 8 0
140737353062208 /home/jhmkorndorfer/jonas/cg2/seqTestes/seq2.trace 1465537437.141958 1465537437.144325 0.002367 8 0
140737353062208 /home/jhmkorndorfer/jonas/cg2/seqTestes/seq2.trace 1465537437.273384 1465537437.275338 0.001954 8 0
140737353062208 /home/jhmkorndorfer/jonas/cg2/seqTestes/seq2.trace 1465537437.403464 1465537437.405455 0.001991 8 0
140737353062208 /home/jhmkorndorfer/jonas/cg2/seqTestes/seq2.trace 1465537437.533475 1465537437.535587 0.002112 8 0
140737353062208 /home/jhmkorndorfer/jonas/cg2/seqTestes/seq2.trace 1465537437.665087 1465537437.666987 0.001900 8 0
140737353062208 /home/jhmkorndorfer/jonas/cg2/seqTestes/seq2.trace 1465537437.794754 1465537437.797054 0.002300 8 0
140737353062208 /home/jhmkorndorfer/jonas/cg2/seqTestes/seq2.trace 1465537437.925525 1465537437.927541 0.002016 8 0
140737353062208 /home/jhmkorndorfer/jonas/cg2/seqTestes/seq2.trace 1465537438.056852 1465537438.059199 0.002347 8 0
140737353062208 /home/jhmkorndorfer/jonas/cg2/seqTestes/seq2.trace 1465537438.187404 1465537438.189385 0.001981 8 0
140737353062208 /home/jhmkorndorfer/jonas/cg2/seqTestes/seq2.trace 1465537438.317502 1465537438.319841 0.002339 8 0
140737353062208 /home/jhmkorndorfer/jonas/cg2/seqTestes/seq2.trace 1465537438.447034 1465537438.448942 0.001908 8 0
140737353062208 /home/jhmkorndorfer/jonas/cg2/seqTestes/seq2.trace 1465537438.576703 1465537438.578875 0.002172 8 0
140737353062208 /home/jhmkorndorfer/jonas/cg2/seqTestes/seq2.trace 1465537438.708029 1465537438.709966 0.001937 8 0
140737353062208 /home/jhmkorndorfer/jonas/cg2/seqTestes/seq2.trace 1465537438.837375 1465537438.839476 0.002101 8 0
140737353062208 /home/jhmkorndorfer/jonas/cg2/seqTestes/seq2.trace 1465537438.967237 1465537438.969294 0.002057 8 0
140737353062208 /home/jhmkorndorfer/jonas/cg2/seqTestes/seq2.trace 1465537439.097817 1465537439.099914 0.002097 8 0
140737353062208 /home/jhmkorndorfer/jonas/cg2/seqTestes/seq2.trace 1465537439.227979 1465537439.230126 0.002147 8 0
140737353062208 /home/jhmkorndorfer/jonas/cg2/seqTestes/seq2.trace 1465537439.357655 1465537439.359225 0.001570 8 0
140737353062208 /home/jhmkorndorfer/jonas/cg2/seqTestes/seq2.trace 1465537439.487675 1465537439.489232 0.001557 8 0
140737353062208 /home/jhmkorndorfer/jonas/cg2/seqTestes/seq2.trace 1465537439.616433 1465537439.617802 0.001369 8 0
140737353062208 /home/jhmkorndorfer/jonas/cg2/seqTestes/seq2.trace 1465537439.747000 1465537439.748449 0.001449 8 0
140737353062208 /home/jhmkorndorfer/jonas/cg2/seqTestes/seq2.trace 1465537439.877829 1465537439.879332 0.001503 8 0
140737353062208 /home/jhmkorndorfer/jonas/cg2/seqTestes/seq2.trace 1465537440.006026 1465537440.007415 0.001389 8 0
140737353062208 /home/jhmkorndorfer/jonas/cg2/seqTestes/seq2.trace 1465537440.135821 1465537440.137419 0.001598 8 0
140737353062208 /home/jhmkorndorfer/jonas/cg2/seqTestes/seq2.trace 1465537440.265022 1465537440.266550 0.001528 8 0
140737353062208 /home/jhmkorndorfer/jonas/cg2/seqTestes/seq2.trace 1465537440.394826 1465537440.396350 0.001524 8 0
140737353062208 /home/jhmkorndorfer/jonas/cg2/seqTestes/seq2.trace 1465537440.524624 1465537440.525990 0.001366 8 0
140737353062208 /home/jhmkorndorfer/jonas/cg2/seqTestes/seq2.trace 1465537440.653584 1465537440.655105 0.001521 8 0
140737353062208 /home/jhmkorndorfer/jonas/cg2/seqTestes/seq2.trace 1465537440.782896 1465537440.784263 0.001367 8 0
140737353062208 /home/jhmkorndorfer/jonas/cg2/seqTestes/seq2.trace 1465537440.912722 1465537440.914230 0.001508 8 0
140737353062208 /home/jhmkorndorfer/jonas/cg2/seqTestes/seq2.trace 1465537441.042843 1465537441.044456 0.001613 8 0
140737353062208 /home/jhmkorndorfer/jonas/cg2/seqTestes/seq2.trace 1465537441.172498 1465537441.173923 0.001425 8 0
140737353062208 /home/jhmkorndorfer/jonas/cg2/seqTestes/seq2.trace 1465537441.301245 1465537441.302977 0.001732 8 0
140737353062208 /home/jhmkorndorfer/jonas/cg2/seqTestes/seq2.trace 1465537441.430535 1465537441.432076 0.001541 8 0
140737353062208 /home/jhmkorndorfer/jonas/cg2/seqTestes/seq2.trace 1465537441.560672 1465537441.562184 0.001512 8 0
140737353062208 /home/jhmkorndorfer/jonas/cg2/seqTestes/seq2.trace 1465537441.690533 1465537441.691887 0.001354 8 0
140737353062208 /home/jhmkorndorfer/jonas/cg2/seqTestes/seq2.trace 1465537441.821453 1465537441.822985 0.001532 8 0
140737353062208 /home/jhmkorndorfer/jonas/cg2/seqTestes/seq2.trace 1465537441.951218 1465537441.952574 0.001356 8 0
140737353062208 /home/jhmkorndorfer/jonas/cg2/seqTestes/seq2.trace 1465537442.080920 1465537442.082434 0.001514 8 0
140737353062208 /home/jhmkorndorfer/jonas/cg2/seqTestes/seq2.trace 1465537442.210397 1465537442.212505 0.002108 8 0
140737353062208 /home/jhmkorndorfer/jonas/cg2/seqTestes/seq2.trace 1465537442.340402 1465537442.341907 0.001505 8 0
140737353062208 /home/jhmkorndorfer/jonas/cg2/seqTestes/seq2.trace 1465537442.469878 1465537442.471518 0.001640 8 0
140737353062208 /home/jhmkorndorfer/jonas/cg2/seqTestes/seq2.trace 1465537442.599428 1465537442.600995 0.001567 8 0
140737353062208 /home/jhmkorndorfer/jonas/cg2/seqTestes/seq2.trace 1465537442.728489 1465537442.729980 0.001491 8 0
140737353062208 /home/jhmkorndorfer/jonas/cg2/seqTestes/seq2.trace 1465537442.858510 1465537442.859909 0.001399 8 0
140737353062208 /home/jhmkorndorfer/jonas/cg2/seqTestes/seq2.trace 1465537442.987358 1465537442.989009 0.001651 8 0
140737353062208 /home/jhmkorndorfer/jonas/cg2/seqTestes/seq2.trace 1465537443.115873 1465537443.117457 0.001584 8 0
140737353062208 /home/jhmkorndorfer/jonas/cg2/seqTestes/seq2.trace 1465537443.246171 1465537443.247569 0.001398 8 0
140737353062208 /home/jhmkorndorfer/jonas/cg2/seqTestes/seq2.trace 1465537443.376709 1465537443.378150 0.001441 8 0
140737353062208 /home/jhmkorndorfer/jonas/cg2/seqTestes/seq2.trace 1465537443.507654 1465537443.509828 0.002174 8 0
140737353062208 /home/jhmkorndorfer/jonas/cg2/seqTestes/seq2.trace 1465537443.637678 1465537443.639302 0.001624 8 0
140737353062208 /home/jhmkorndorfer/jonas/cg2/seqTestes/seq2.trace 1465537443.768202 1465537443.769578 0.001376 8 0
140737353062208 /home/jhmkorndorfer/jonas/cg2/seqTestes/seq2.trace 1465537443.896430 1465537443.897929 0.001499 8 0
140737353062208 /home/jhmkorndorfer/jonas/cg2/seqTestes/seq2.trace 1465537444.027793 1465537444.029392 0.001599 8 0
140737353062208 /home/jhmkorndorfer/jonas/cg2/seqTestes/seq2.trace 1465537444.158039 1465537444.160309 0.002270 8 0
140737353062208 /home/jhmkorndorfer/jonas/cg2/seqTestes/seq2.trace 1465537444.287146 1465537444.289291 0.002145 8 0
140737353062208 /home/jhmkorndorfer/jonas/cg2/seqTestes/seq2.trace 1465537444.418194 1465537444.420215 0.002021 8 0
140737353062208 /home/jhmkorndorfer/jonas/cg2/seqTestes/seq2.trace 1465537444.547624 1465537444.549707 0.002083 8 0
140737353062208 /home/jhmkorndorfer/jonas/cg2/seqTestes/seq2.trace 1465537444.677426 1465537444.679294 0.001868 8 0
140737353062208 /home/jhmkorndorfer/jonas/cg2/seqTestes/seq2.trace 1465537444.807927 1465537444.810207 0.002280 8 0
140737353062208 /home/jhmkorndorfer/jonas/cg2/seqTestes/seq2.trace 1465537444.938231 1465537444.940279 0.002048 8 0
140737353062208 /home/jhmkorndorfer/jonas/cg2/seqTestes/seq2.trace 1465537445.066667 1465537445.068674 0.002007 8 0
140737353062208 /home/jhmkorndorfer/jonas/cg2/seqTestes/seq2.trace 1465537445.196944 1465537445.199030 0.002086 8 0
140737353062208 /home/jhmkorndorfer/jonas/cg2/seqTestes/seq2.trace 1465537445.326499 1465537445.328853 0.002354 8 0
140737353062208 /home/jhmkorndorfer/jonas/cg2/seqTestes/seq2.trace 1465537445.455996 1465537445.457996 0.002000 8 0
140737353062208 /home/jhmkorndorfer/jonas/cg2/seqTestes/seq2.trace 1465537445.587413 1465537445.588987 0.001574 8 0
140737353062208 /home/jhmkorndorfer/jonas/cg2/seqTestes/seq2.trace 1465537445.717527 1465537445.719079 0.001552 8 0
140737353062208 /home/jhmkorndorfer/jonas/cg2/seqTestes/seq2.trace 1465537445.846616 1465537445.847955 0.001339 8 0
140737353062208 /home/jhmkorndorfer/jonas/cg2/seqTestes/seq2.trace 1465537445.976678 1465537445.978291 0.001613 8 0
140737353062208 /home/jhmkorndorfer/jonas/cg2/seqTestes/seq2.trace 1465537446.109047 1465537446.110618 0.001571 8 0
140737353062208 /home/jhmkorndorfer/jonas/cg2/seqTestes/seq2.trace 1465537446.238291 1465537446.238555 0.000264 8 0
Decoder Time: 140737353062208 14.716673 8 0
Simulator Time: 140737353062208 7.567976 8 0
