<?xml version="1.0" encoding="UTF-8" standalone="no"?>
<!-- Created with Inkscape (http://www.inkscape.org/) -->

<svg
   xmlns:dc="http://purl.org/dc/elements/1.1/"
   xmlns:cc="http://creativecommons.org/ns#"
   xmlns:rdf="http://www.w3.org/1999/02/22-rdf-syntax-ns#"
   xmlns:svg="http://www.w3.org/2000/svg"
   xmlns="http://www.w3.org/2000/svg"
   xmlns:sodipodi="http://sodipodi.sourceforge.net/DTD/sodipodi-0.dtd"
   xmlns:inkscape="http://www.inkscape.org/namespaces/inkscape"
   width="421.18372"
   height="74.880943"
   id="svg2"
   version="1.1"
   inkscape:version="0.48.5 r10040"
   sodipodi:docname="paje_sequencial.svg">
  <defs
     id="defs4">
    <marker
       inkscape:stockid="Arrow1Mend"
       orient="auto"
       refY="0"
       refX="0"
       id="Arrow1Mend"
       style="overflow:visible">
      <path
         id="path71718"
         d="M 0,0 5,-5 -12.5,0 5,5 0,0 z"
         style="fill-rule:evenodd;stroke:#000000;stroke-width:1pt"
         transform="matrix(-0.4,0,0,-0.4,-4,0)"
         inkscape:connector-curvature="0" />
    </marker>
    <clipPath
       id="clipPath3304"
       clipPathUnits="userSpaceOnUse">
      <path
         id="path3306"
         d="m 67.88,58.82 323.88,0 0,398.45 -323.88,0 0,-398.45 z"
         inkscape:connector-curvature="0" />
    </clipPath>
    <clipPath
       id="clipPath3280"
       clipPathUnits="userSpaceOnUse">
      <path
         id="path3282"
         d="M 0,0 504,0 504,504 0,504 0,0 z"
         inkscape:connector-curvature="0" />
    </clipPath>
    <clipPath
       id="clipPath3022"
       clipPathUnits="userSpaceOnUse">
      <path
         id="path3024"
         d="m 0,0 381.57657,0 0,48.377609 L 0,48.377609 0,0 z"
         inkscape:connector-curvature="0" />
    </clipPath>
    <marker
       inkscape:stockid="Arrow1Mend"
       orient="auto"
       refY="0"
       refX="0"
       id="Arrow1Mend-1"
       style="overflow:visible">
      <path
         inkscape:connector-curvature="0"
         id="path71718-6"
         d="M 0,0 5,-5 -12.5,0 5,5 0,0 z"
         style="fill-rule:evenodd;stroke:#000000;stroke-width:1pt"
         transform="matrix(-0.4,0,0,-0.4,-4,0)" />
    </marker>
    <marker
       inkscape:stockid="Arrow1Mend"
       orient="auto"
       refY="0"
       refX="0"
       id="Arrow1Mend-4"
       style="overflow:visible">
      <path
         inkscape:connector-curvature="0"
         id="path71718-0"
         d="M 0,0 5,-5 -12.5,0 5,5 0,0 z"
         style="fill-rule:evenodd;stroke:#000000;stroke-width:1pt"
         transform="matrix(-0.4,0,0,-0.4,-4,0)" />
    </marker>
    <marker
       inkscape:stockid="Arrow1Mend"
       orient="auto"
       refY="0"
       refX="0"
       id="Arrow1Mend-4-0"
       style="overflow:visible">
      <path
         inkscape:connector-curvature="0"
         id="path71718-0-8"
         d="M 0,0 5,-5 -12.5,0 5,5 0,0 z"
         style="fill-rule:evenodd;stroke:#000000;stroke-width:1pt"
         transform="matrix(-0.4,0,0,-0.4,-4,0)" />
    </marker>
    <marker
       inkscape:stockid="Arrow1Mend"
       orient="auto"
       refY="0"
       refX="0"
       id="Arrow1Mend-4-3"
       style="overflow:visible">
      <path
         inkscape:connector-curvature="0"
         id="path71718-0-4"
         d="M 0,0 5,-5 -12.5,0 5,5 0,0 z"
         style="fill-rule:evenodd;stroke:#000000;stroke-width:1pt"
         transform="matrix(-0.4,0,0,-0.4,-4,0)" />
    </marker>
  </defs>
  <sodipodi:namedview
     id="base"
     pagecolor="#ffffff"
     bordercolor="#666666"
     borderopacity="1.0"
     inkscape:pageopacity="0.0"
     inkscape:pageshadow="2"
     inkscape:zoom="1.4"
     inkscape:cx="211.28796"
     inkscape:cy="18.281542"
     inkscape:document-units="px"
     inkscape:current-layer="g72892"
     showgrid="false"
     fit-margin-top="0"
     fit-margin-left="0"
     fit-margin-right="0"
     fit-margin-bottom="0"
     inkscape:window-width="1364"
     inkscape:window-height="701"
     inkscape:window-x="0"
     inkscape:window-y="27"
     inkscape:window-maximized="0" />
  <metadata
     id="metadata7">
    <rdf:RDF>
      <cc:Work
         rdf:about="">
        <dc:format>image/svg+xml</dc:format>
        <dc:type
           rdf:resource="http://purl.org/dc/dcmitype/StillImage" />
        <dc:title></dc:title>
      </cc:Work>
    </rdf:RDF>
  </metadata>
  <g
     inkscape:label="Layer 1"
     inkscape:groupmode="layer"
     id="layer1"
     transform="translate(9.6616674,-298.01696)">
    <g
       id="g3014"
       transform="matrix(1.25,0,0,-1.25,-305.7331,-24.61972)">
      <g
         id="g3016"
         transform="matrix(1.11433,0,0,1.11433,205.71429,-340.57143)">
        <g
           id="g72892">
          <path
             inkscape:connector-curvature="0"
             d="m 28.436807,59.658933 64.216393,0 0,-20.167518 -64.216393,0 0,20.167518 z"
             style="fill:none;stroke:#000000;stroke-width:0.52243942;stroke-linecap:butt;stroke-linejoin:miter;stroke-miterlimit:4;stroke-opacity:1;stroke-dasharray:none"
             id="path3034" />
          <text
             style="font-size:11.67142773px"
             y="-48.727303"
             x="28.937935"
             id="text3036"
             transform="scale(1.0281518,-0.97261902)">
            <tspan
               id="tspan3038"
               sodipodi:role="line"
               y="-48.727303"
               x="28.937935 33.481571 38.455997 40.707493 45.706303 49.794762 52.046257 54.297756 59.296566 64.571732 69.570549 74.544968 79.698212 84.697021"
               style="font-size:8.12814713px;font-variant:normal;font-weight:normal;writing-mode:lr-tb;fill:#000000;fill-opacity:1;fill-rule:nonzero;stroke:none;font-family:DejaVu Sans;-inkscape-font-specification:DejaVuSans">PajeFileReader</tspan>
          </text>
          <path
             inkscape:connector-curvature="0"
             d="m 192.02557,59.658933 60.57032,0 0,-20.167518 -60.57032,0 0,20.167518 z"
             style="fill:none;stroke:#000000;stroke-width:0.50739115;stroke-linecap:butt;stroke-linejoin:miter;stroke-miterlimit:4;stroke-opacity:1;stroke-dasharray:none"
             id="path3050" />
          <text
             style="font-size:11.67142773px"
             y="-48.72842"
             x="187.84715"
             id="text3052"
             transform="scale(1.0281518,-0.97261902)">
            <tspan
               id="tspan3054"
               sodipodi:role="line"
               y="-48.72842"
               x="187.84715 192.39079 197.36522 199.61671 204.61552 209.76877 212.02026 219.93707 225.0822 227.33369 232.30811 235.49435 240.46066"
               style="font-size:8.12814713px;font-variant:normal;font-weight:normal;writing-mode:lr-tb;fill:#000000;fill-opacity:1;fill-rule:nonzero;stroke:none;font-family:DejaVu Sans;-inkscape-font-specification:DejaVuSans">PajeSimulator</tspan>
          </text>
          <path
             inkscape:connector-curvature="0"
             d="m 102.51051,59.658933 79.309,0 0,-20.167518 -79.309,0 0,20.167518 z"
             style="fill:none;stroke:#000000;stroke-width:0.58058161;stroke-linecap:butt;stroke-linejoin:miter;stroke-miterlimit:4;stroke-opacity:1;stroke-dasharray:none"
             id="path3042" />
          <text
             style="font-size:11.67142773px"
             y="-48.72842"
             x="100.76801"
             id="text3044"
             transform="scale(1.0281518,-0.97261902)">
            <tspan
               id="tspan3046"
               sodipodi:role="line"
               y="-48.72842"
               x="100.76801 105.31165 110.28605 112.53755 117.53635 122.66522 127.46896 132.46777 137.61288 140.79912 147.05779 152.05659 156.51895 161.48524 166.63849 171.6373"
               style="font-size:8.12814713px;font-variant:normal;font-weight:normal;writing-mode:lr-tb;fill:#000000;fill-opacity:1;fill-rule:nonzero;stroke:none;font-family:DejaVu Sans;-inkscape-font-specification:DejaVuSans">PajeEventDecoder</tspan>
          </text>
          <path
             sodipodi:nodetypes="cc"
             inkscape:connector-curvature="0"
             id="path72347"
             d="m 92.53802,49.575174 c 3.26344,0 8.49948,0 8.49948,0"
             style="fill:none;stroke:#000000;stroke-width:0.71792018px;stroke-linecap:butt;stroke-linejoin:miter;stroke-opacity:1;marker-end:url(#Arrow1Mend)" />
          <path
             sodipodi:nodetypes="cc"
             inkscape:connector-curvature="0"
             id="path72347-7"
             d="m 181.89057,49.575174 c 3.26344,0 8.49948,0 8.49948,0"
             style="fill:none;stroke:#000000;stroke-width:0.71792018px;stroke-linecap:butt;stroke-linejoin:miter;stroke-opacity:1;marker-end:url(#Arrow1Mend)" />
          <text
             style="font-size:20.37830544px"
             y="-24.663586"
             x="27.376938"
             id="text3090"
             transform="scale(1.021747,-0.97871587)">
            <tspan
               id="tspan3092"
               sodipodi:role="line"
               style="font-size:8.25078392px;font-variant:normal;font-weight:normal;writing-mode:lr-tb;fill:#000000;fill-opacity:1;fill-rule:nonzero;stroke:none;font-family:DejaVu Sans;-inkscape-font-specification:DejaVuSans"
               x="27.376938"
               y="-24.663586">Time</tspan>
          </text>
          <path
             sodipodi:nodetypes="cc"
             inkscape:connector-curvature="0"
             id="path72347-3"
             d="m 28.441952,22.03776 c 3.26344,0 300.026358,0 300.026358,0"
             style="fill:none;stroke:#000000;stroke-width:0.71792018px;stroke-linecap:butt;stroke-linejoin:miter;stroke-opacity:1;marker-end:url(#Arrow1Mend)" />
          <text
             style="font-size:15.14460373px"
             y="-62.748817"
             x="271.90515"
             id="text3058"
             transform="scale(0.9908967,-1.0091869)">
            <tspan
               id="tspan3060"
               sodipodi:role="line"
               y="-62.748817"
               x="271.90515 277.08768 281.62427 286.32422 289.23474 293.77875 295.83548 300.55765 305.1239"
               style="font-size:7.42484999px;font-variant:normal;font-weight:normal;writing-mode:lr-tb;fill:#000000;fill-opacity:1;fill-rule:nonzero;stroke:none;font-family:DejaVu Sans;-inkscape-font-specification:DejaVuSans">Container</tspan>
          </text>
          <path
             sodipodi:open="true"
             sodipodi:end="6.2795199"
             sodipodi:start="0"
             transform="matrix(0.89908806,0,0,-0.58024023,-71.426071,229.72347)"
             d="m 421.96428,281.96039 c 0,7.37201 -10.13355,13.34821 -22.63393,13.34821 -12.50037,0 -22.63393,-5.9762 -22.63393,-13.34821 0,-7.37202 10.13356,-13.34822 22.63393,-13.34822 12.46799,0 22.58808,5.94643 22.63378,13.29929"
             sodipodi:ry="13.348214"
             sodipodi:rx="22.633928"
             sodipodi:cy="281.96039"
             sodipodi:cx="399.33035"
             id="path72583"
             style="fill:none;stroke:#000000;stroke-width:0.5;stroke-linecap:round;stroke-linejoin:round;stroke-miterlimit:4;stroke-opacity:1;stroke-dasharray:none"
             sodipodi:type="arc" />
          <text
             style="font-size:15.14460373px"
             y="-46.88937"
             x="281.30847"
             id="text3058-5"
             transform="scale(0.9908967,-1.0091869)">
            <tspan
               id="tspan3060-2"
               sodipodi:role="line"
               y="-46.88937"
               x="281.30847 286.49097 291.02759 295.72751 298.63803 303.18207 305.23877 309.96094 314.52719"
               style="font-size:7.42484999px;font-variant:normal;font-weight:normal;writing-mode:lr-tb;fill:#000000;fill-opacity:1;fill-rule:nonzero;stroke:none;font-family:DejaVu Sans;-inkscape-font-specification:DejaVuSans">Container</tspan>
          </text>
          <path
             sodipodi:open="true"
             sodipodi:end="6.2795199"
             sodipodi:start="0"
             transform="matrix(0.89908806,0,0,-0.58024023,-62.108381,213.71833)"
             d="m 421.96428,281.96039 c 0,7.37201 -10.13355,13.34821 -22.63393,13.34821 -12.50037,0 -22.63393,-5.9762 -22.63393,-13.34821 0,-7.37202 10.13356,-13.34822 22.63393,-13.34822 12.46799,0 22.58808,5.94643 22.63378,13.29929"
             sodipodi:ry="13.348214"
             sodipodi:rx="22.633928"
             sodipodi:cy="281.96039"
             sodipodi:cx="399.33035"
             id="path72583-7"
             style="fill:none;stroke:#000000;stroke-width:0.5;stroke-linecap:round;stroke-linejoin:round;stroke-miterlimit:4;stroke-opacity:1;stroke-dasharray:none"
             sodipodi:type="arc" />
          <text
             style="font-size:15.14460373px"
             y="-30.629147"
             x="294.24625"
             id="text3058-3"
             transform="scale(0.9908967,-1.0091869)">
            <tspan
               id="tspan3060-0"
               sodipodi:role="line"
               y="-30.629147"
               x="294.24625 299.42877 303.96536 308.66531 311.57584 316.11984 318.17654 322.89871 327.465"
               style="font-size:7.42484999px;font-variant:normal;font-weight:normal;writing-mode:lr-tb;fill:#000000;fill-opacity:1;fill-rule:nonzero;stroke:none;font-family:DejaVu Sans;-inkscape-font-specification:DejaVuSans">Container</tspan>
          </text>
          <path
             sodipodi:open="true"
             sodipodi:end="6.2795199"
             sodipodi:start="0"
             transform="matrix(0.89908806,0,0,-0.58024023,-49.288371,197.30872)"
             d="m 421.96428,281.96039 c 0,7.37201 -10.13355,13.34821 -22.63393,13.34821 -12.50037,0 -22.63393,-5.9762 -22.63393,-13.34821 0,-7.37202 10.13356,-13.34822 22.63393,-13.34822 12.46799,0 22.58808,5.94643 22.63378,13.29929"
             sodipodi:ry="13.348214"
             sodipodi:rx="22.633928"
             sodipodi:cy="281.96039"
             sodipodi:cx="399.33035"
             id="path72583-3"
             style="fill:none;stroke:#000000;stroke-width:0.5;stroke-linecap:round;stroke-linejoin:round;stroke-miterlimit:4;stroke-opacity:1;stroke-dasharray:none"
             sodipodi:type="arc" />
          <path
             sodipodi:nodetypes="cc"
             transform="matrix(0.71792019,0,0,-0.71792019,34.883912,287.95389)"
             inkscape:connector-curvature="0"
             id="path72635"
             d="m 303.55084,332.12342 c 9.52921,-0.7895 3.45595,-11.23078 21.2132,-20.45559"
             style="fill:none;stroke:#000000;stroke-width:1px;stroke-linecap:butt;stroke-linejoin:miter;stroke-opacity:1;marker-end:url(#Arrow1Mend-4)" />
          <path
             sodipodi:nodetypes="cc"
             inkscape:connector-curvature="0"
             id="path72635-1"
             d="m 252.76169,49.530692 c 6.84121,0.5668 6.10713,-0.820999 22.84407,0.181302"
             style="fill:none;stroke:#000000;stroke-width:0.71792018px;stroke-linecap:butt;stroke-linejoin:miter;stroke-opacity:1;marker-end:url(#Arrow1Mend-4)" />
          <path
             sodipodi:nodetypes="cc"
             inkscape:connector-curvature="0"
             id="path72635-1-2"
             d="m 252.90322,49.77328 c 6.84121,0.5668 10.45838,-19.132525 35.71653,-16.679807"
             style="fill:none;stroke:#000000;stroke-width:0.71792018px;stroke-linecap:butt;stroke-linejoin:miter;stroke-opacity:1;marker-end:url(#Arrow1Mend-4)" />
        </g>
      </g>
    </g>
  </g>
</svg>
